<svg xmlns="http://www.w3.org/2000/svg" viewBox="0 0 12 1" preserveAspectRatio="none">
    <polygon points="0,1 1,0 2,1 3,0 4,1 5,0 6,1 7,0 8,1 9,0 10,1 11,0 12,1" fill="hsl(0deg, 0%, 80%)" />
</svg>
